{//以下全部出自网络和大佬资源，如有冒犯请联系删除。[所有内容仅供个人交流学习使用，请勿用于商业违法用途]
//公众号：『乐享汇fans』『乐享生活fans』
//QQ频道：『乐享汇fans』     QQ群：621886232     630383903
 "spider":"./lxhfans1.jar",
  "wallpaper":"https://api.likepoems.com/img/bing",
  "warningText":"公众号：乐享汇fans免费分享持续更新，更多详情见公众号文章",
  "lives": [
    {
      "name": "直播",
      "type": 0,
      "url": "./live.txt",
      "playerType": 1,
      "header": {
        "User-Agent": "Mozilla/5.0 (Windows NT 10.0; Win64; x64) AppleWebKit/537.36 (KHTML, like Gecko) Chrome/86.0.4240.198 Safari/537.36"
     },
      "epg": "http://api.cntv.cn/epg/epginfo?serviceId=cbox&c={name}&d={date}",
      "logo": "https://epg.112114.xyz/logo/{name}.png"
     }
     ],

"sites":[
    {
     "key":"DB",
     "name":"🌎豆瓣|公众号：乐享汇fans免费分享持续更新，更多详情见公众号文章",
     "type":3,
     "api":"./JS/drpy.min.js","ext":"./JS/豆瓣.js"
    },
    {
     "key": "csp_KungFu404",
     "name":"🎦阿狸设置",
     "type": 3, 
     "api": "csp_KungFu404", 
     "searchable":1,
     "filterable": 0, 
     "changeable":0,
     "jar":"./jar/alisz.jar"
    },
        {
      "key": "应用商店",
      "name": "🏫应用商店",
      "type": 3,
      "api": "csp_Market",
      "searchable": 0,
      "changeable": 0,
      "ext": "./JS/yysd.json",
      "jar": "https://cloud.lxweb.cn/f/pY9Kce/lxhfans%E5%BA%94%E7%94%A8%E5%B8%82%E5%9C%BA.jar"
    },
    {
            "key": "小纸条_cli",
            "name": "纸条┃T4 ",
            "type": 4,
            "api": "http://home.jundie.top:9520/spider/cli_gitCafe",
            "searchable": 1,
            "quickSearch": 1,
            "filterable": 1,
            "ext": "http://127.0.0.1:9978/file/lxhfans/token.txt",
            "timeout": 30
    },
   {
      "key": "Wogg",
      "name": "玩偶┃PG",
      "type": 3,
      "style": {
        "type": "rect",
        "ratio": 1.597
      },
      "jar": "./jar/pg.jar",
      "api": "csp_Wogg",
      "ext": "http://127.0.0.1:9978/file/lxhfans/token.txt$$$https://api.wogg.xyz/"
    },
    {
            "key": "csp_WoGG",
            "name": "玩偶┃FS",
            "type": 3,
            "jar": "./jar/fan.txt",
            "api": "csp_WoGG",
            "searchable": 1,
            "quickSearch": 1,
            "changeable": 0,
            "ext": "http://127.0.0.1:9978/file/lxhfans/token.txt+auto|4k|fhd$$$https://api.wogg.xyz/"
    },
    {
            "key": "csp_XYQHikerAL",
            "name": "玩偶┃HK",
            "type": 3,
            "api": "csp_XYQHikerAL",
            "searchable": 1,
            "quickSearch": 1,
            "filterable": 1,
            "jar": "./jar/xyq.jar",
            "ext": "./JS/玩偶哥哥.json"
    },
    {
            "key": "csp_woggcli",
            "name": "玩偶┃T4",
            "type": 4,
            "api": "http://home.jundie.top:9520/spider/csp_Wogg?sort=原画,蓝光,超清,高清",
            "searchable": 1,
            "quickSearch": 1,
            "filterable": 1,
            "ext": "http://127.0.0.1:9978/file/lxhfans/token.txt"
    },
    {
      "key": "Wogg1",
      "name": "玩偶┃GG",
      "type": 3,
      "api": "csp_Wogg",
      "searchable": 1,
      "filterable": 1,
      "changeable": 0,
      "ext": {
        "token": "http://127.0.0.1:9978/file/lxhfans/token.txt",
        "filter": "./JS/wogg.json",
        "danmu": false
      },
      "jar": "./jar/danmu.jar"
    },
    {
      "key": "Wobg",
      "name": "玩偶┃BG",
      "type": 3,
      "style": {
        "type": "rect",
        "ratio": 1.597
      },
      "jar": "./jar/pg.jar",
      "api": "csp_Wobg",
      "ext": "http://127.0.0.1:9978/file/lxhfans/token.txt$$$http://wobge.run.goorm.io"
    },
    {
      "key": "初见表哥",
      "name": "玩偶┃BZ",
      "type": 3,
      "api": "csp_XBPQ",
      "searchable": 1,
      "quickSearch": 1,
      "filterable": 0,
      "jar": "./jar/fty.jar",
      "ext": {
        "二次截取": "1&&-1+module-item-cover",
        "数组": "module-item-pic&&module-item-cover",
        "副标题": "module-item-text*>&&<",
        "导演": "导演：&&</div>",
        "主演": "主演：&&</div>",
        "简介": "剧情：&&</div>",
        "搜索url": "http://www.214728327.xyz:56708/index.php/vodsearch/-------------.html?wd={wd}",
        "分类url": "http://www.214728327.xyz:56708/index.php/vod/show/area/{area}/by/{by}/class/{class}/id/{cateId}/lang/{lang}/letter/{letter}/year/{year}/page/{catePg}.html;;阿里",
        "阿里token": "http://127.0.0.1:9978/file/XYQTVBox/alitoken.txt",
        "分类": "电影$1#剧集$2#综艺$4#动漫$3#短剧$5#音乐$6"
      }
    },
    {
     "key": "csp_WoGG1",
     "name": "玩偶┃BY",
     "type": 3,
     "style": {
       "type": "rect",
       "ratio": 0.8
     },
     "api": "csp_WoGG",
     "searchable": 1,
     "quickSearch": 1,
     "filterable": 1,
     "jar": "./JS/rski.js",
     "ext": "7984abb3f03c447196459eebd03eda63" 
    },
    {
      "key": "玩偶弹幕版",
      "name": "玩偶┃DM",
      "type": 3,
      "api": "csp_Wogg",
      "searchable": 1,
      "filterable": 1,
      "changeable": 0,
      "ext": {
        "token": "http://127.0.0.1:9978/file/lxhfans/token.txt",
        "filter": "./JS/wogg.json",
        "danmu": true
      },
      "jar": "./jar/danmu.jar"
    },
    {
      "key": "Gitcafe",
      "name": "咖咖┃4K",
      "type": 3,
      "api": "csp_Paper",
      "searchable": 1,
      "quickSearch": 1,
      "filterable": 1,
      "jar": "./HeChengChaXiu.jar",
      "ext": "b4242bebe6f144d3aa6a2cd842ac65aa"
    },
    {
      "key": "影巢",
      "name": "巢巢┃4K",
      "type": 3,
      "api": "csp_Hdhive",
      "searchable": 1,
      "quickSearch": 1,
      "filterable": 0,
      "jar": "./jar/xry.jar",
      "ext": "http://127.0.0.1:9978/file/lxhfans/token.txt"
    },
    {
     "key": "csp_XBPQ_6V",
     "name": "宝宝┃4K",
     "type": 3,
     "api": "csp_XBPQ",
     "searchable": 1,
     "quickSearch": 1,
     "filterable": 1,
     "jar":"./jar/vip.jar",
     "ext":"./h/6Vip.json"
    },
    { 
      "key": "csp_XYQHiker_‍dyx", 
      "name": "盒盒┃4K", 
      "type": 3, 
      "api": "csp_XYQHiker", 
      "searchable": 1, 
      "quickSearch": 1, 
      "filterable": 1, 
      "jar": "./jar/spider.txt",
      "ext": "./JS/dyg.json"    
    }, 
    { 
      "key": "csp_XYQHikerlg4k", 
      "name": "云云┃4K", 
      "type": 3, 
      "api": "csp_XYQHiker", 
      "searchable": 1, 
      "quickSearch": 1, 
      "filterable": 1, 
      "jar": "./jar/spider.txt",
      "ext": "./JS/4KHDR.json"     
    }, 
    { 
      "key": "csp_XYQHiker4klg", 
      "name": "盘盘┃4K", 
      "type": 3, 
      "api": "csp_XYQHiker", 
      "searchable": 1, 
      "quickSearch": 1, 
      "filterable": 1, 
      "jar": "./jar/spider.txt",
      "ext": "./JS/中国蓝光网.json"  
    },
    {
      "key": "春哥☆自营",
      "name": "自营┃CG ",
      "type": 1,
      "api": "http://mfsj.kele.plus/api.php/provide/vod/",
      "playerType": "2",
      "searchable": 1,
      "quickSearch": 1,
      "filterable": 1,
      "categories": [
        "短剧",
        "电影",
        "连续剧",
        "少儿",
        "动漫",
        "综艺",
        "体育赛事"
      ]
    },
    {
      "key": "black",
      "name": "自营┃XH",
      "type": 1,
      "playerType": 1,
      "api": "http://d.xzam.cn/api.php/provide/vod/"
    },
    {
      "key": "TX资源",
            "name": "️自营┃TX",
            "type": 1,
            "api": "http://playersll.gaoxin155.com.cn/api.php/provide/vod/from/qq/?at/xml/",
            "searchable": 1,
            "quickSearch": 1,
            "filterable": 1,
            "categories": [
                "国产剧",
                "韩国剧",
                "香港剧",
                "台湾剧",
                "欧美剧",
                "动作片",
                "科幻片",
                "战争片",
                "奇幻片",
                "喜剧片",
                "爱情片",
                "恐怖片",
                "犯罪片",
                "悬疑片",
                "惊悚片",
                "剧情片",
                "冒险片",
                "记录片",
                "综艺",
                "动漫"
            ]
    },
    {
      "key": "sohu",
      "name": "搜搜(官)",
      "type": 1,
      "api": "http://tvbox-1-g5221611.deta.app/vod/sohu",
      "searchable": 1,
      "quickSearch": 1,
      "playUrl": "json:http://110.42.2.247:880/analysis/json/?uid=2449&my=acfgikquvzFGJRW459&url="
    },  
    {
     "key":"SG",
     "name":"狗狗(官)",
     "type":3,
     "api":"http://vip.weixine.link:88/js/lib/drpy2.min.js",
     "ext":"http://vip.weixine.link:88/js/caigou.js"
    },
    {
      "key": "drpy_js_奇珍异兽",
      "name": "爱爱(官)",
      "type": 3,
      "api": "http://122.51.37.23/man/js/lib/man.js",
      "ext": "http://122.51.37.23/man/js/爱奇艺.js"
    },
    {
      "key": "drpy_js_优酷",
      "name": "优优(官)",
      "type": 3,
      "api": "http://122.51.37.23/man/js/lib/man.js",
      "ext": "http://122.51.37.23/man/js/优酷.js"
    },
    {
      "key": "drpy_js_腾云驾雾",
      "name": "腾腾(官)",
      "type": 3,
      "api": "http://122.51.37.23/man/js/lib/man.js",
      "ext": "http://122.51.37.23/man/js/腾讯.js"
    },
    {
      "key": "drpy_js_百忙无果",
      "name": "芒芒(官)",
      "type": 3,
      "api": "http://122.51.37.23/man/js/lib/man.js",
      "ext": "http://122.51.37.23/man/js/芒果.js"
    },
    {
      "key": "drpy_js_360影视",
      "name": "360(官)",
      "type": 3,
      "api": "http://122.51.37.23/man/js/lib/man.js",
      "ext": "http://122.51.37.23/man/js/360.js"
    },


  


#云盘搜索

   {
      "key":"七夜",
      "name":"七夜┃🍭",
      "type":3,
      "api":"csp_Dovx",
      "jar":"./jar/fm.jar",
      "searchable":1,
      "filterable":1,
      "changeable":0,
      "ext":"http://127.0.0.1:9978/file/lxhfans/token.txt+4k|auto|fhd"
    },
    {
      "key": "七夜弹幕版",
      "name": "七夜DM┃🍭",
      "type": 3,
      "api": "csp_Dovx",
      "searchable": 1,
      "filterable": 0,
      "changeable": 1,
      "ext": {
        "token": "http://127.0.0.1:9978/file/lxhfans/token.txt+4k|auto|fhd",
        "danmu": true
      },
      "jar": "./jar/danmu.jar"
    },
    {
      "key": "csp_AliPS",
      "name": "资源HK┃🍭",
      "type": 3,
      "api": "csp_AliPS",
      "jar": "./lxhfans1.jar",
      "searchable": 1,
      "quickSearch": 1,
      "filterable": 0,
      "ext": "http://127.0.0.1:9978/file/lxhfans/token.txt+4k|auto|fhd"
    },
    {
      "key":"纸条",
      "name":"纸条┃🍭",
      "type":3,
      "api":"csp_XiaoZhiTiao",
      "jar":"./jar/fm.jar",
      "searchable":1,
      "filterable":1,
      "changeable":0,
      "ext":"http://127.0.0.1:9978/file/lxhfans/token.txt+4k|auto|fhd"
    },
    {
      "key":"易搜",
      "name":"易搜┃🍭",
      "type":3,
      "api":"csp_YiSo",
      "jar":"./jar/fm.jar",
      "searchable":1,
      "filterable":1,
      "changeable":0,
      "ext":"http://127.0.0.1:9978/file/lxhfans/token.txt+4k|auto|fhd"
    },
    {
      "key":"云搜",
      "name":"云搜┃🍭",
      "type":3,
      "api":"csp_UpYun",
      "jar":"./jar/fm.jar",
      "searchable":1,
      "quickSearch":1,
      "filterable":1,
      "changeable":0,
      "ext":"http://127.0.0.1:9978/file/lxhfans/token.txt+4k|auto|fhd"
    }, 
    {
      "key":"盘搜",
      "name":"盘搜┃🍭",
      "type":3,
      "api":"csp_PanSearch",
      "jar":"./jar/fm.jar",
      "searchable":1,
      "filterable":1,
      "changeable":0,
      "ext":"http://127.0.0.1:9978/file/lxhfans/token.txt+4k|auto|fhd"
    },
    {
      "key": "Gitcafe1",
      "name": "纸条HK┃🍭",
      "type": 3,
      "jar": "./jar/xyq.jar",
      "api": "csp_Gitcafe",
      "playerType": 1,
      "searchable": 1,
      "quickSearch": 1,
      "filterable": 1,
      "ext": "http://127.0.0.1:9978/file/lxhfans/token.txt+4k|auto|fhd"
    },
    {
      "key": "csp_Yisou",
      "name": "易搜HK┃🍭",
      "type": 3,
      "jar": "./jar/xyq.jar",
      "api": "csp_Yisou",
      "playerType": 1,
      "searchable": 1,
      "quickSearch": 1,
      "filterable": 0,
      "ext": "http://127.0.0.1:9978/file/lxhfans/token.txt+4k|auto|fhd"
    },
    {
      "key": "csp_Upyunso",
      "name": "云搜HK┃🍭",
      "type": 3,
      "jar": "./jar/xyq.jar",
      "api": "csp_Upyunso",
      "playerType": 1,
      "searchable": 1,
      "quickSearch": 1,
      "filterable": 0,
      "ext": "http://127.0.0.1:9978/file/lxhfans/token.txt+4k|auto|fhd"
    },
    {
      "key": "csp_AliPS1",
      "name": "盘搜HK┃🍭",
      "type": 3,
      "jar": "./jar/xyq.jar",
      "api": "csp_AliPS",
      "playerType": 1,
      "searchable": 1,
      "quickSearch": 1,
      "filterable": 0,
      "ext": "http://127.0.0.1:9978/file/lxhfans/token.txt+4k|auto|fhd"
    },
    {
      "key": "纸条弹幕版",
      "name": "纸条DM┃🍭",
      "type": 3,
      "api": "csp_XiaoZhiTiao",
      "searchable": 1,
      "filterable": 1,
      "changeable": 1,
      "ext": {
        "token": "http://127.0.0.1:9978/file/lxhfans/token.txt+4k|auto|fhd",
        "danmu": true
      },
      "jar": "./jar/danmu.jar"
    },
    {
      "key": "易搜弹幕版",
      "name": "易搜DM┃🍭",
      "type": 3,
      "api": "csp_YiSo",
      "searchable": 1,
      "filterable": 0,
      "changeable": 1,
      "ext": {
        "token": "http://127.0.0.1:9978/file/lxhfans/token.txt+4k|auto|fhd",
        "danmu": true
      },
      "jar": "./jar/danmu.jar"
    },
    {
      "key": "盘Se弹幕版",
      "name": "云搜DM┃🍭",
      "type": 3,
      "api": "csp_PanSearch",
      "searchable": 1,
      "filterable": 0,
      "changeable": 1,
      "ext": {
        "token": "http://127.0.0.1:9978/file/lxhfans/token.txt+4k|auto|fhd",
        "danmu": true
      },
      "jar": "./jar/danmu.jar"
    },
    {
      "key": "盘搜弹幕版",
      "name": "盘搜DM┃🍭",
      "type": 3,
      "api": "csp_PanSou",
      "searchable": 1,
      "filterable": 0,
      "changeable": 1,
      "ext": {
        "token": "http://127.0.0.1:9978/file/lxhfans/token.txt+4k|auto|fhd",
        "danmu": true
      },
      "jar": "./jar/danmu.jar"
    },
    {
      "key": "cc1",
      "name": "🍀🍁关注公众号",
      "type": 3,
      "api": "csp_XPath",
      "searchable": 0,
      "quickSearch": 0,
      "filterable": 0
    },
    {
      "key": "cc2",
      "name": "『乐享汇fans』",
      "type": 3,
      "api": "csp_XPath",
      "searchable": 0,
      "quickSearch": 0,
      "filterable": 0
    },
    {
      "key": "cc3",
      "name": "『乐享生活fans』",
      "type": 3,
      "api": "csp_XPath",
      "searchable": 0,
      "quickSearch": 0,
      "filterable": 0
    },
    {
      "key": "cc4",
      "name": "12.03维护更新🍁🍀",
      "type": 3,
      "api": "csp_XPath",
      "searchable": 0,
      "quickSearch": 0,
      "filterable": 0
    }
],
"parses":[
        {"name":"关注","type":3,"url":"Demo"},
        {"name":"公众号","type":2,"url":"Sequence"},
        {"name": "『乐享汇fans』","type": 3,"url": "Web"},
        {"name": "『乐享生活fans』","type": 1,"url": "http://json.84jia.com/home/api?type=ys&uid=335253&key=acefhmqsxEMPRVYZ26&url="},
        {"name":"彩彩","type":1,"url":"http://42.157.129.144:2323/CH/caihong_1993138546.php?url=","ext":{"flag":["imgv","migu","qq","qiyi","mgtv","bilibili","youku"],"header":{"User-Agent":"okhttp/3.12.0"}}},
        {"name":"云云","type":1,"url":"https://api.tyun77.cn/api.php/provide/parseDicturl?url=","ext":{"flag":["imgv","migu","qq","qiyi","mgtv","bilibili"],"header":{"User-Agent":"okhttp/3.12.0"}}},
        {"name":"乐乐","type":1,"url":"http://103.42.31.123:5821/jx/?url="},
        {"name":"途途","type":0,"url":"https://jx.yangtu.top/?url="},
        {"name":"米米","type":0,"url":"https://jx.xmflv.com/?url="},
        {"name":"七七","type":0,"url":"https://jx.777jiexi.com/player/?url="},
        {"name":"玖玖","type":0,"url":"https://jx.jsonplayer.com/player/?url="}
        ],


"flags":
["youku","qq","QQ","iqiyi","qiqi","qiyi","letv","sohu","tudou","pptv","PPTV","mgtv","ltnb","rx","SLYS4k","FEI","XAL","QEYSS","aliyun","AliS","ddzy","kuying-zj","xfyun","wuduzy","wasu","bilibili","renrenmi","haiwaikan","cool","tnmb","xigua","m1905","funshion","imgo","ruyi1080","ruyib1080","juquan4k","tucheng","yzm","seven","caihong","YuMi-vip"],


"rules":[
{"name":"量子","hosts":["vip.lz","hd.lz","v.cdnlz","v.cdnlz1"],"regex":["#EXT-X-DISCONTINUITY\\r*\\n*#EXTINF:6.433333,[\\s\\S]*?#EXT-X-DISCONTINUITY","#EXTINF.*?\\s+.*?1o.*?\\.ts\\s+"]},
{"name":"暴风","hosts":["bfzy","s1.bfzycdn"],"regex":["#EXT-X-DISCONTINUITY\\r*\\n*#EXTINF:3,[\\s\\S]*?#EXT-X-DISCONTINUITY","#EXTINF.*?\\s+.*?1o.*?\\.ts\\s+"]},
{"name":"非凡","hosts":["vip.ffzy","hd.ffzy"],"regex":["#EXT-X-DISCONTINUITY\\r*\\n*#EXTINF:6.666667,[\\s\\S]*?#EXT-X-DISCONTINUITY","#EXTINF.*?\\s+.*?1o.*?\\.ts\\s+"]},
{"name":"蜗牛","hosts":["vip.123pan.cn","rescdn.wuxivlog.cn"],"regex": ["#EXT-X-DISCONTINUITY\\r*\\n*#EXTINF:20.840000,[\\s\\S]*?#EXT-X-DISCONTINUITY","#EXT-X-DISCONTINUITY\\r*\\n*#EXTINF:10.120000,[\\s\\S]*?#EXT-X-DISCONTINUITY","#EXTINF.*?\\s+.*?1o.*?\\.ts\\s+"]},
{"name":"索尼","hosts":["snzycdn","suonizy"],"regex": ["#EXT-X-DISCONTINUITY\\r*\\n*#EXTINF:8.333333,[\\s\\S]*?#EXT-X-DISCONTINUITY","#EXT-X-DISCONTINUITY\\r*\\n*#EXTINF:7.680000,[\\s\\S]*?#EXT-X-DISCONTINUITY","#EXTINF.*?\\s+.*?1o.*?\\.ts\\s+"]},
{"name":"沿途","hosts":["jx.yangtu.top"],"regex":["download4.caiyun.feixin.10086.cn","/servlet/"]},
{"name":"火山","hosts":["huoshan.com"],"regex":["item_id="]},
{"name":"抖音",hosts":["douyin.com"],"regex":["is_play_url="]}],

"ijk":[
{"group":"软解码","options":[
{"category":4,"name":"opensles","value":"0"},
{"category":4,"name":"overlay-format","value":"842225234"},
{"category":4,"name":"framedrop","value":"1"},
{"category":4,"name":"soundtouch","value":"1"},
{"category":4,"name":"start-on-prepared","value":"1"},
{"category":1,"name":"http-detect-range-support","value":"0"},
{"category":1,"name":"fflags","value":"fastseek"},
{"category":2,"name":"skip_loop_filter","value":"48"},
{"category":4,"name":"reconnect","value":"1"},
{"category":4,"name":"enable-accurate-seek","value":"0"},
{"category":4,"name":"mediacodec","value":"0"},
{"category":4,"name":"mediacodec-auto-rotate","value":"0"},
{"category":4,"name":"mediacodec-handle-resolution-change","value":"0"},
{"category":4,"name":"mediacodec-hevc","value":"0"},
{"category":1,"name":"dns_cache_timeout","value":"600000000"}
]},
{"group":"硬解码","options":[
{"category":4,"name":"opensles","value":"0"},
{"category":4,"name":"overlay-format","value":"842225234"},
{"category":4,"name":"framedrop","value":"1"},
{"category":4,"name":"soundtouch","value":"1"},
{"category":4,"name":"start-on-prepared","value":"1"},
{"category":1,"name":"http-detect-range-support","value":"0"},
{"category":1,"name":"fflags","value":"fastseek"},
{"category":2,"name":"skip_loop_filter","value":"48"},
{"category":4,"name":"reconnect","value":"1"},
{"category":4,"name":"enable-accurate-seek","value":"0"},
{"category":4,"name":"mediacodec","value":"1"},
{"category":4,"name":"mediacodec-auto-rotate","value":"1"},
{"category":4,"name":"mediacodec-handle-resolution-change","value":"1"},
{"category":4,"name":"mediacodec-hevc","value":"1"},
{"category":1,"name":"dns_cache_timeout","value":"600000000"}
]}],

"doh":[
{"name":"Google","url":"https://dns.google/dns-query","ips":["8.8.4.4","8.8.8.8"]},
{"name":"Cloudflare","url":"https://cloudflare-dns.com/dns-query","ips":["1.1.1.1","1.0.0.1","2606:4700:4700::1111","2606:4700:4700::1001"]},
{"name":"AdGuard","url":"https://dns.adguard.com/dns-query","ips":["94.140.14.140","94.140.14.141"]},
{"name":"DNSWatch","url":"https://resolver2.dns.watch/dns-query","ips":["84.200.69.80","84.200.70.40"]},
{"name":"Quad9","url":"https://dns.quad9.net/dns-quer","ips":["9.9.9.9","149.112.112.112"]}],

"ads":["mimg.0c1q0l.cn","www.googletagmanager.com","www.google-analytics.com","mc.usihnbcq.cn","mg.g1mm3d.cn","mscs.svaeuzh.cn","cnzz.hhttm.top","tp.vinuxhome.com","cnzz.mmstat.com","www.baihuillq.com","s23.cnzz.com","z3.cnzz.com","c.cnzz.com","stj.v1vo.top","z12.cnzz.com","img.mosflower.cn","tips.gamevvip.com","ehwe.yhdtns.com","xdn.cqqc3.com","www.jixunkyy.cn","sp.chemacid.cn","hm.baidu.com","s9.cnzz.com","z6.cnzz.com","um.cavuc.com","mav.mavuz.com","wofwk.aoidf3.com","z5.cnzz.com","xc.hubeijieshikj.cn","tj.tianwenhu.com","xg.gars57.cn","k.jinxiuzhilv.com","cdn.bootcss.com","ppl.xunzhuo123.com","xomk.jiangjunmh.top","img.xunzhuo123.com","z1.cnzz.com","s13.cnzz.com","xg.huataisangao.cn","z7.cnzz.com","xg.huataisangao.cn","z2.cnzz.com","s96.cnzz.com","q11.cnzz.com","thy.dacedsfa.cn","xg.whsbpw.cn","s19.cnzz.com","z8.cnzz.com","s4.cnzz.com","f5w.as12df.top","ae01.alicdn.com","www.92424.cn","k.wudejia.com","vivovip.mmszxc.top","qiu.xixiqiu.com","cdnjs.hnfenxun.com","cms.qdwght.com","https://lf1-cdn-tos.bytegoofy.com/obj/tos-cn-i-dy/455ccf9e8ae744378118e4bd289288dd"]
}
